The Art & Science of Data Visualization
…
class(g)

[1] "gg"     "ggplot"

Inspect a ggplot Object

g$data

# A tibble: 1,454 × 14
   date       day_night year  month season count is_workday is_weekend is_holiday  temp temp_feel humidity wind_speed weather_type    
   <date>     <chr>     <fct> <fct> <fct>  <int> <lgl>      <lgl>      <lgl>      <dbl>     <dbl>    <dbl>      <dbl> <chr>           
 1 2015-01-04 day       2015  1     winter  6830 FALSE      TRUE       FALSE       2.17     -0.75     95.2      10.4  broken clouds   
 2 2015-01-04 night     2015  1     winter  2404 FALSE      TRUE       FALSE       2.79      2.04     93.4       4.58 clear           
 3 2015-01-05 day       2015  1     winter 14763 TRUE       FALSE      FALSE       8.96      7.71     81.1       8.67 broken clouds   
 4 2015-01-05 night     2015  1     winter  5609 TRUE       FALSE      FALSE       7.12      5.71     79.5       9.04 cloudy          
 5 2015-01-06 day       2015  1     winter 14501 TRUE       FALSE      FALSE       9         6.46     80.2      19.2  broken clouds   
 6 2015-01-06 night     2015  1     winter  6112 TRUE       FALSE      FALSE       6.71      4.21     77.6      12.8  clear           
 7 2015-01-07 day       2015  1     winter 16358 TRUE       FALSE      FALSE       8.17      5.08     75.2      21.2  scattered clouds
 8 2015-01-07 night     2015  1     winter  4706 TRUE       FALSE      FALSE       6.68      3.86     81.3      18.1  clear           
 9 2015-01-08 day       2015  1     winter  9971 TRUE       FALSE      FALSE       9.46      7.12     79.4      18.8  scattered clouds
10 2015-01-08 night     2015  1     winter  5630 TRUE       FALSE      FALSE      10.0       8.46     79.2      22.2  clear           
# ℹ 1,444 more rows
…
$path
[1] "/Users/cedric/Library/Fonts/FontBase/Asap-Bold.ttf"

$index
[1] 0

$features
NULL

Use Non-Default Typefaces

system_fonts()

# A tibble: 16,691 × 9
   path                                                                     index name                                family style weight width italic monospace
   <chr>                                                                    <int> <chr>                               <chr>  <chr> <ord>  <ord> <lgl>  <lgl>    
 1 /Users/cedric/Library/Fonts/FontBase/IntroHeadR-Base.otf                     0 IntroHeadR-Base                     Intro… Base  normal norm… FALSE  FALSE    
 2 /Users/cedric/Library/Fonts/Moniqa-ThinItalicHeading.otf                     0 Moniqa-ThinItalicHeading            Moniqa Thin… ultra… norm… TRUE   FALSE    
 3 /Users/cedric/Library/Fonts/ArimoNerdFontPropo-Italic.ttf                    0 ArimoNFP-Italic                     Arimo… Ital… normal norm… TRUE   FALSE    
 4 /Users/cedric/Library/Fonts/iosevka-ss02.ttc                                72 Iosevka-SS02-Medium                 Iosev… Medi… medium norm… FALSE  TRUE     
 5 /System/Library/Fonts/Supplemental/Bangla MN.ttc                             0 BanglaMN                            Bangl… Regu… normal norm… FALSE  FALSE    
 6 /Users/cedric/Library/Fonts/iosevka-ss01-extrabold.ttc                      17 Iosevka-Fixed-SS01-Extrabold-Exten… Iosev… Extr… ultra… norm… TRUE   TRUE     
 7 /Users/cedric/Library/Fonts/Anybody-ExtraExpandedExtraLight.otf              0 Anybody-ExtraExpandedExtraLight     Anybo… Extr… light  semi… FALSE  FALSE    
 8 /Users/cedric/Library/Fonts/Neutraface Text Demi Alt.ttf                     0 NeutrafaceText-DemiAlt              Neutr… Regu… semib… norm… FALSE  FALSE    
 9 /Users/cedric/Library/Fonts/PlusJakartaSans-Italic-VariableFont_wght.ttf     1 PlusJakartaSansItalic-Light         Plus … Ligh… normal norm… TRUE   FALSE    
10 /Users/cedric/Library/Fonts/aleo-italic-webfont.ttf                          0 Aleo-Italic                         Aleo   Ital… normal norm… TRUE   FALSE    
# ℹ 16,681 more rows
…
