Engaging & Reproducible Data Visualization
…
  ) +
  scale_x_log10(
    breaks = c(500, 2000, 8000, 32000),
    labels = scales::label_dollar(accuracy = 1)
  ) +
  scale_size(
    range = c(1, 12), name = "Population:", 
    breaks = c(10, 100, 1000)*1000000, 
    labels = scales::label_comma(scale = 1 / 10^6, suffix = "M")
  ) +
  labs(x = "GDP per capita", y = "Life expectancy") +
  theme_minimal(base_family = "Asap SemiCondensed") +
  theme(panel.grid.minor = element_blank())

# A tibble: 142 × 6
   country     continent  year lifeExp       pop gdpPercap
   <fct>       <fct>     <int>   <dbl>     <int>     <dbl>
 1 Afghanistan Asia       2007    43.8  31889923      975.
 2 Albania     Europe     2007    76.4   3600523     5937.
 3 Algeria     Africa     2007    72.3  33333216     6223.
 4 Angola      Africa     2007    42.7  12420476     4797.
 5 Argentina   Americas   2007    75.3  40301927    12779.
 6 Australia   Oceania    2007    81.2  20434176    34435.
 7 Austria     Europe     2007    79.8   8199783    36126.
 8 Bahrain     Asia       2007    75.6    708573    29796.
 9 Bangladesh  Asia       2007    64.1 150448339     1391.
10 Belgium     Europe     2007    79.4  10392226    33693.
# ℹ 132 more rows
…
